{
  "AWSTemplateFormatVersion": "2010-09-09",
  "Metadata": {
    "AWS::CloudFormation::Designer": {
      "683b395b-6621-489c-b856-57b4c9bc2587": {
        "size": {
          "width": 60,
          "height": 60
        },
        "position": {
          "x": 360,
          "y": 870
        },
        "z": 1,
        "embeds": [],
        "dependson": [
          "d4f0ae49-a9ee-49f0-b0fc-51c056e7f916"
        ]
      },
      "d4f0ae49-a9ee-49f0-b0fc-51c056e7f916": {
        "size": {
          "width": 720,
          "height": 640
        },
        "position": {
          "x": 630,
          "y": 590
        },
        "z": 1,
        "embeds": [
          "525cd2a5-446d-474a-84a9-799b109c1a92",
          "3c70865a-d094-49c0-bf08-e89e29e564e7",
          "1b838a6d-e7f4-4cf5-8e2f-91a096c4843e",
          "f880313e-6e06-47d9-864d-eda3b5e73c01",
          "53dfe393-281a-4799-8aeb-8a674d0ca43b",
          "9b09b1c2-5d40-481c-b2d6-71c10bca28fb",
          "f551e188-0c68-4740-822f-81e8d8b5c7a7",
          "dda58c74-edb9-4ea1-ac14-3452129387d4",
          "c3f39447-0f9b-4d46-b43f-d616380dceae",
          "cf7034ac-b022-4f89-a4cc-5a5e680d8d25",
          "ef29d1c6-0143-4d06-8fe8-53e777d46d57",
          "ffb53e05-a491-41a0-9109-f3aeb82c081f",
          "c6063497-4151-4b4b-89e7-a01f28a366da",
          "70fb5956-bcfd-4cb6-8e41-0ad55c76ba6d",
          "efe9bd72-014c-4a36-8d6e-5220be0ca93f",
          "59c23064-e765-4af2-a5f4-e7268e68e189",
          "24a65627-c91d-4419-8c24-541f8c075eee",
          "6bca386a-aa78-499e-bd0d-86a4135391f8",
          "9097a1fa-2e73-42ba-856c-d93d85822596",
          "c0bc71fa-a55a-4d1c-a5b8-8a313cf0cb0e",
          "2640e76a-9b21-4e4f-a142-e5a4f0bb7e84"
        ]
      },
      "5c9c4abb-e7ad-4cb7-8103-27cb6b4fc8ec": {
        "source": {
          "id": "683b395b-6621-489c-b856-57b4c9bc2587"
        },
        "target": {
          "id": "d4f0ae49-a9ee-49f0-b0fc-51c056e7f916"
        },
        "z": 1
      },
      "2dd48373-2f24-42ae-84d0-565224cb8e19": {
        "source": {
          "id": "683b395b-6621-489c-b856-57b4c9bc2587"
        },
        "target": {
          "id": "d4f0ae49-a9ee-49f0-b0fc-51c056e7f916"
        },
        "z": 2
      },
      "6bca386a-aa78-499e-bd0d-86a4135391f8": {
        "size": {
          "width": 150,
          "height": 150
        },
        "position": {
          "x": 600,
          "y": 1470
        },
        "z": 0,
        "parent": "d4f0ae49-a9ee-49f0-b0fc-51c056e7f916",
        "embeds": [],
        "dependson": [
          "d4f0ae49-a9ee-49f0-b0fc-51c056e7f916"
        ]
      },
      "59c23064-e765-4af2-a5f4-e7268e68e189": {
        "size": {
          "width": 150,
          "height": 150
        },
        "position": {
          "x": 790,
          "y": 1470
        },
        "z": 0,
        "parent": "d4f0ae49-a9ee-49f0-b0fc-51c056e7f916",
        "embeds": [],
        "dependson": [
          "d4f0ae49-a9ee-49f0-b0fc-51c056e7f916"
        ]
      },
      "3c70865a-d094-49c0-bf08-e89e29e564e7": {
        "size": {
          "width": 150,
          "height": 150
        },
        "position": {
          "x": 970,
          "y": 300
        },
        "z": 0,
        "parent": "d4f0ae49-a9ee-49f0-b0fc-51c056e7f916",
        "embeds": [],
        "dependson": [
          "d4f0ae49-a9ee-49f0-b0fc-51c056e7f916"
        ]
      },
      "70fb5956-bcfd-4cb6-8e41-0ad55c76ba6d": {
        "size": {
          "width": 150,
          "height": 150
        },
        "position": {
          "x": 1190,
          "y": 1480
        },
        "z": 0,
        "parent": "d4f0ae49-a9ee-49f0-b0fc-51c056e7f916",
        "embeds": [],
        "dependson": [
          "d4f0ae49-a9ee-49f0-b0fc-51c056e7f916"
        ]
      },
      "6da7a8bd-6645-4619-8907-f6aaedf7a3b8": {
        "source": {
          "id": "6bca386a-aa78-499e-bd0d-86a4135391f8"
        },
        "target": {
          "id": "d4f0ae49-a9ee-49f0-b0fc-51c056e7f916"
        },
        "z": 11
      },
      "c0e4e842-7fa5-49a5-a86d-c170fd1e2368": {
        "source": {
          "id": "59c23064-e765-4af2-a5f4-e7268e68e189"
        },
        "target": {
          "id": "d4f0ae49-a9ee-49f0-b0fc-51c056e7f916"
        },
        "z": 12
      },
      "a2639fe3-97eb-4821-bdc2-e1f214450c6e": {
        "source": {
          "id": "3c70865a-d094-49c0-bf08-e89e29e564e7"
        },
        "target": {
          "id": "d4f0ae49-a9ee-49f0-b0fc-51c056e7f916"
        },
        "z": 13
      },
      "d5e8cd13-9fd1-4edd-b8f5-f4dcf3fb610e": {
        "source": {
          "id": "70fb5956-bcfd-4cb6-8e41-0ad55c76ba6d"
        },
        "target": {
          "id": "d4f0ae49-a9ee-49f0-b0fc-51c056e7f916"
        },
        "z": 14
      },
      "ef29d1c6-0143-4d06-8fe8-53e777d46d57": {
        "size": {
          "width": 150,
          "height": 150
        },
        "position": {
          "x": 630,
          "y": 300
        },
        "z": 0,
        "parent": "d4f0ae49-a9ee-49f0-b0fc-51c056e7f916",
        "embeds": [
          "03e64c5a-39d0-47b3-861f-66f6b5a26013"
        ],
        "dependson": [
          "d4f0ae49-a9ee-49f0-b0fc-51c056e7f916"
        ]
      },
      "cf7034ac-b022-4f89-a4cc-5a5e680d8d25": {
        "size": {
          "width": 150,
          "height": 150
        },
        "position": {
          "x": 800,
          "y": 300
        },
        "z": 0,
        "parent": "d4f0ae49-a9ee-49f0-b0fc-51c056e7f916",
        "embeds": [
          "79359c68-fed5-4936-b6ee-c53f57266149"
        ],
        "dependson": [
          "d4f0ae49-a9ee-49f0-b0fc-51c056e7f916"
        ]
      },
      "525cd2a5-446d-474a-84a9-799b109c1a92": {
        "size": {
          "width": 150,
          "height": 150
        },
        "position": {
          "x": 990,
          "y": 1480
        },
        "z": 0,
        "parent": "d4f0ae49-a9ee-49f0-b0fc-51c056e7f916",
        "embeds": [
          "70a02a8f-61c3-4f6c-af7d-a6a80c7e3409"
        ],
        "dependson": [
          "d4f0ae49-a9ee-49f0-b0fc-51c056e7f916"
        ]
      },
      "c3f39447-0f9b-4d46-b43f-d616380dceae": {
        "size": {
          "width": 150,
          "height": 150
        },
        "position": {
          "x": 1140,
          "y": 300
        },
        "z": 0,
        "parent": "d4f0ae49-a9ee-49f0-b0fc-51c056e7f916",
        "embeds": [
          "0a9949ba-72dc-4f8e-8cff-668041870bdb"
        ],
        "dependson": [
          "d4f0ae49-a9ee-49f0-b0fc-51c056e7f916"
        ]
      },
      "724e0eb2-48cf-438d-b8c4-f2dba0693afa": {
        "source": {
          "id": "ef29d1c6-0143-4d06-8fe8-53e777d46d57"
        },
        "target": {
          "id": "d4f0ae49-a9ee-49f0-b0fc-51c056e7f916"
        },
        "z": 11
      },
      "9307c062-4014-4e6e-b952-30d883b0074f": {
        "source": {
          "id": "cf7034ac-b022-4f89-a4cc-5a5e680d8d25"
        },
        "target": {
          "id": "d4f0ae49-a9ee-49f0-b0fc-51c056e7f916"
        },
        "z": 12
      },
      "de9e8552-83e2-404a-b995-52a30944255a": {
        "source": {
          "id": "525cd2a5-446d-474a-84a9-799b109c1a92"
        },
        "target": {
          "id": "d4f0ae49-a9ee-49f0-b0fc-51c056e7f916"
        },
        "z": 13
      },
      "d211f823-b46b-4e1b-a32f-ff80300d071a": {
        "source": {
          "id": "c3f39447-0f9b-4d46-b43f-d616380dceae"
        },
        "target": {
          "id": "d4f0ae49-a9ee-49f0-b0fc-51c056e7f916"
        },
        "z": 14
      },
      "2640e76a-9b21-4e4f-a142-e5a4f0bb7e84": {
        "size": {
          "width": 430,
          "height": 220
        },
        "position": {
          "x": 740,
          "y": 1770
        },
        "z": 0,
        "parent": "d4f0ae49-a9ee-49f0-b0fc-51c056e7f916",
        "embeds": [],
        "dependson": [
          "6bca386a-aa78-499e-bd0d-86a4135391f8",
          "525cd2a5-446d-474a-84a9-799b109c1a92",
          "70fb5956-bcfd-4cb6-8e41-0ad55c76ba6d",
          "59c23064-e765-4af2-a5f4-e7268e68e189",
          "9b09b1c2-5d40-481c-b2d6-71c10bca28fb",
          "53dfe393-281a-4799-8aeb-8a674d0ca43b",
          "1b838a6d-e7f4-4cf5-8e2f-91a096c4843e",
          "f880313e-6e06-47d9-864d-eda3b5e73c01"
        ]
      },
      "c6063497-4151-4b4b-89e7-a01f28a366da": {
        "size": {
          "width": 570,
          "height": 160
        },
        "position": {
          "x": 670,
          "y": 50
        },
        "z": 0,
        "parent": "d4f0ae49-a9ee-49f0-b0fc-51c056e7f916",
        "embeds": [
          "2787e543-7da6-4d90-a97f-dbf9963f2d87",
          "20033a93-797b-4083-99e3-9fd93ded5002"
        ],
        "dependson": [
          "ef29d1c6-0143-4d06-8fe8-53e777d46d57",
          "cf7034ac-b022-4f89-a4cc-5a5e680d8d25",
          "3c70865a-d094-49c0-bf08-e89e29e564e7",
          "c3f39447-0f9b-4d46-b43f-d616380dceae"
        ]
      },
      "6dcc901b-2e45-4ee7-927d-3b7188debec1": {
        "size": {
          "width": 60,
          "height": 60
        },
        "position": {
          "x": 740,
          "y": 2080
        },
        "z": 0,
        "embeds": [],
        "dependson": [
          "2640e76a-9b21-4e4f-a142-e5a4f0bb7e84"
        ]
      },
      "6db12346-8116-4fad-b111-cb85e9f7060d": {
        "source": {
          "id": "6dcc901b-2e45-4ee7-927d-3b7188debec1"
        },
        "target": {
          "id": "2640e76a-9b21-4e4f-a142-e5a4f0bb7e84"
        },
        "z": 2
      },
      "eed8ead0-cb8f-475c-b938-070f0bf8694a": {
        "source": {
          "id": "3d3b9fe0-31b8-4c74-a0cd-7c967ce67cda"
        },
        "target": {
          "id": "2640e76a-9b21-4e4f-a142-e5a4f0bb7e84"
        },
        "z": 3
      },
      "bafa7749-4cfe-49b9-8361-ee3bddb355a5": {
        "source": {
          "id": "9ee9955b-0b86-483e-82d2-2b28a90af12e"
        },
        "target": {
          "id": "2640e76a-9b21-4e4f-a142-e5a4f0bb7e84"
        },
        "z": 4
      },
      "84ad3576-3522-4c35-b9d3-0c938d92faa9": {
        "source": {
          "id": "2640e76a-9b21-4e4f-a142-e5a4f0bb7e84"
        },
        "target": {
          "id": "6bca386a-aa78-499e-bd0d-86a4135391f8"
        },
        "z": 0
      },
      "40e68712-6be8-4686-b41d-59b28e0478c7": {
        "source": {
          "id": "2640e76a-9b21-4e4f-a142-e5a4f0bb7e84"
        },
        "target": {
          "id": "525cd2a5-446d-474a-84a9-799b109c1a92"
        },
        "z": 0
      },
      "13c8013a-50c4-4772-a7c4-95af714bf0bf": {
        "source": {
          "id": "2640e76a-9b21-4e4f-a142-e5a4f0bb7e84"
        },
        "target": {
          "id": "70fb5956-bcfd-4cb6-8e41-0ad55c76ba6d"
        },
        "z": 0
      },
      "711a429f-32b2-45ac-9743-573ad931c86f": {
        "source": {
          "id": "2640e76a-9b21-4e4f-a142-e5a4f0bb7e84"
        },
        "target": {
          "id": "6bca386a-aa78-499e-bd0d-86a4135391f8"
        },
        "z": 9
      },
      "cec23ecb-a01f-4aca-9bd4-8d47008c8fa8": {
        "source": {
          "id": "2640e76a-9b21-4e4f-a142-e5a4f0bb7e84"
        },
        "target": {
          "id": "525cd2a5-446d-474a-84a9-799b109c1a92"
        },
        "z": 10
      },
      "3f7262bd-e3aa-4acf-a8c8-63ae2a5363e2": {
        "source": {
          "id": "2640e76a-9b21-4e4f-a142-e5a4f0bb7e84"
        },
        "target": {
          "id": "70fb5956-bcfd-4cb6-8e41-0ad55c76ba6d"
        },
        "z": 11
      },
      "7904ee3e-e200-45aa-9251-74aa2c28d2b3": {
        "source": {
          "id": "2640e76a-9b21-4e4f-a142-e5a4f0bb7e84"
        },
        "target": {
          "id": "59c23064-e765-4af2-a5f4-e7268e68e189"
        },
        "z": 12
      },
      "4fe71b74-b738-4295-bfe1-3ab172892aa8": {
        "source": {
          "id": "2640e76a-9b21-4e4f-a142-e5a4f0bb7e84"
        },
        "target": {
          "id": "59c23064-e765-4af2-a5f4-e7268e68e189"
        },
        "z": 0
      },
      "e6ae5ab4-8633-41fb-b9f7-3b3333b4a413": {
        "size": {
          "width": 60,
          "height": 60
        },
        "position": {
          "x": 1080,
          "y": 2080
        },
        "z": 0,
        "embeds": [],
        "dependson": [
          "2640e76a-9b21-4e4f-a142-e5a4f0bb7e84"
        ]
      },
      "66825cc6-f132-4580-88d3-63a5d383eb4c": {
        "source": {
          "id": "e6ae5ab4-8633-41fb-b9f7-3b3333b4a413"
        },
        "target": {
          "id": "2640e76a-9b21-4e4f-a142-e5a4f0bb7e84"
        },
        "z": 11
      },
      "20033a93-797b-4083-99e3-9fd93ded5002": {
        "size": {
          "width": 60,
          "height": 60
        },
        "position": {
          "x": 850,
          "y": -70
        },
        "z": 0,
        "parent": "c6063497-4151-4b4b-89e7-a01f28a366da",
        "embeds": [],
        "dependson": [
          "c6063497-4151-4b4b-89e7-a01f28a366da"
        ]
      },
      "2787e543-7da6-4d90-a97f-dbf9963f2d87": {
        "size": {
          "width": 60,
          "height": 60
        },
        "position": {
          "x": 980,
          "y": -70
        },
        "z": 0,
        "parent": "c6063497-4151-4b4b-89e7-a01f28a366da",
        "embeds": [],
        "dependson": [
          "c6063497-4151-4b4b-89e7-a01f28a366da"
        ]
      },
      "b409a138-84c9-4791-afa6-c321ffa2b3eb": {
        "source": {
          "id": "c6063497-4151-4b4b-89e7-a01f28a366da"
        },
        "target": {
          "id": "ef29d1c6-0143-4d06-8fe8-53e777d46d57"
        },
        "z": 11
      },
      "37452935-5bc6-4d15-a775-dd5098551e3d": {
        "source": {
          "id": "c6063497-4151-4b4b-89e7-a01f28a366da"
        },
        "target": {
          "id": "cf7034ac-b022-4f89-a4cc-5a5e680d8d25"
        },
        "z": 12
      },
      "df027a12-b15d-401b-ace5-91b65c051001": {
        "source": {
          "id": "c6063497-4151-4b4b-89e7-a01f28a366da"
        },
        "target": {
          "id": "3c70865a-d094-49c0-bf08-e89e29e564e7"
        },
        "z": 13
      },
      "6f13ec1d-3d38-4688-b86f-fea16067ede9": {
        "source": {
          "id": "c6063497-4151-4b4b-89e7-a01f28a366da"
        },
        "target": {
          "id": "c3f39447-0f9b-4d46-b43f-d616380dceae"
        },
        "z": 14
      },
      "7e5d7c60-539e-449a-bc4d-85ac9db5387e": {
        "source": {
          "id": "c6063497-4151-4b4b-89e7-a01f28a366da"
        },
        "target": {
          "id": "ef29d1c6-0143-4d06-8fe8-53e777d46d57"
        },
        "z": 0
      },
      "8e50a12d-d13d-40ce-a995-b5bfd1e2f72e": {
        "source": {
          "id": "c6063497-4151-4b4b-89e7-a01f28a366da"
        },
        "target": {
          "id": "cf7034ac-b022-4f89-a4cc-5a5e680d8d25"
        },
        "z": 0
      },
      "972c9d3b-2d40-4bb6-b743-3cf8186abc5d": {
        "source": {
          "id": "c6063497-4151-4b4b-89e7-a01f28a366da"
        },
        "target": {
          "id": "3c70865a-d094-49c0-bf08-e89e29e564e7"
        },
        "z": 0
      },
      "1187836e-4fb9-4a47-bd14-9e9d8363750c": {
        "source": {
          "id": "c6063497-4151-4b4b-89e7-a01f28a366da"
        },
        "target": {
          "id": "c3f39447-0f9b-4d46-b43f-d616380dceae"
        },
        "z": 0
      },
      "8be962f2-0787-4a90-b002-edcd18a37925": {
        "source": {
          "id": "20033a93-797b-4083-99e3-9fd93ded5002"
        },
        "target": {
          "id": "c6063497-4151-4b4b-89e7-a01f28a366da"
        },
        "z": 19
      },
      "d60eaf59-84a2-40e4-8083-91f245535375": {
        "source": {
          "id": "2787e543-7da6-4d90-a97f-dbf9963f2d87"
        },
        "target": {
          "id": "c6063497-4151-4b4b-89e7-a01f28a366da"
        },
        "z": 20
      },
      "9097a1fa-2e73-42ba-856c-d93d85822596": {
        "size": {
          "width": 140,
          "height": 140
        },
        "position": {
          "x": 1600,
          "y": 1340
        },
        "z": 0,
        "parent": "d4f0ae49-a9ee-49f0-b0fc-51c056e7f916",
        "embeds": [
          "8fc87fb2-ff4a-4330-aa4b-fa6f126b1b02"
        ],
        "dependson": [
          "6bca386a-aa78-499e-bd0d-86a4135391f8"
        ]
      },
      "24a65627-c91d-4419-8c24-541f8c075eee": {
        "size": {
          "width": 140,
          "height": 140
        },
        "position": {
          "x": 1770,
          "y": 1340
        },
        "z": 0,
        "parent": "d4f0ae49-a9ee-49f0-b0fc-51c056e7f916",
        "embeds": [
          "6fe647a9-1d25-4256-b418-126f3d3f3d65"
        ],
        "dependson": [
          "59c23064-e765-4af2-a5f4-e7268e68e189"
        ]
      },
      "dda58c74-edb9-4ea1-ac14-3452129387d4": {
        "size": {
          "width": 140,
          "height": 140
        },
        "position": {
          "x": 1940,
          "y": 1340
        },
        "z": 0,
        "parent": "d4f0ae49-a9ee-49f0-b0fc-51c056e7f916",
        "embeds": [
          "1505280f-b097-4374-b550-036337095fe8"
        ],
        "dependson": [
          "525cd2a5-446d-474a-84a9-799b109c1a92"
        ]
      },
      "efe9bd72-014c-4a36-8d6e-5220be0ca93f": {
        "size": {
          "width": 140,
          "height": 140
        },
        "position": {
          "x": 2110,
          "y": 1340
        },
        "z": 0,
        "parent": "d4f0ae49-a9ee-49f0-b0fc-51c056e7f916",
        "embeds": [
          "115a2b81-fa9e-4202-bf8a-4de3da0b2b94"
        ],
        "dependson": [
          "70fb5956-bcfd-4cb6-8e41-0ad55c76ba6d"
        ]
      },
      "03e64c5a-39d0-47b3-861f-66f6b5a26013": {
        "size": {
          "width": 60,
          "height": 60
        },
        "position": {
          "x": 1570,
          "y": 870
        },
        "z": 0,
        "parent": "ef29d1c6-0143-4d06-8fe8-53e777d46d57",
        "embeds": [],
        "dependson": [
          "f17e105a-9865-45fe-a849-bbc1e8eebe20"
        ],
        "isrelatedto": [
          "f17e105a-9865-45fe-a849-bbc1e8eebe20"
        ]
      },
      "79359c68-fed5-4936-b6ee-c53f57266149": {
        "size": {
          "width": 60,
          "height": 60
        },
        "position": {
          "x": 1670,
          "y": 870
        },
        "z": 0,
        "parent": "cf7034ac-b022-4f89-a4cc-5a5e680d8d25",
        "embeds": [],
        "dependson": [
          "823d8e86-7e73-4e88-895b-150360194d15"
        ],
        "isrelatedto": [
          "823d8e86-7e73-4e88-895b-150360194d15"
        ]
      },
      "70a02a8f-61c3-4f6c-af7d-a6a80c7e3409": {
        "size": {
          "width": 60,
          "height": 60
        },
        "position": {
          "x": 1770,
          "y": 870
        },
        "z": 0,
        "parent": "525cd2a5-446d-474a-84a9-799b109c1a92",
        "embeds": [],
        "dependson": [
          "9653252e-7c1f-43d4-9698-f155ccc5fc35"
        ],
        "isrelatedto": [
          "9653252e-7c1f-43d4-9698-f155ccc5fc35"
        ]
      },
      "0a9949ba-72dc-4f8e-8cff-668041870bdb": {
        "size": {
          "width": 60,
          "height": 60
        },
        "position": {
          "x": 1870,
          "y": 870
        },
        "z": 0,
        "parent": "c3f39447-0f9b-4d46-b43f-d616380dceae",
        "embeds": [],
        "dependson": [
          "6eaa4297-c470-4492-a00b-f4a2c31aaff4"
        ],
        "isrelatedto": [
          "6eaa4297-c470-4492-a00b-f4a2c31aaff4"
        ]
      },
      "f17e105a-9865-45fe-a849-bbc1e8eebe20": {
        "size": {
          "width": 60,
          "height": 60
        },
        "position": {
          "x": 1570,
          "y": 780
        },
        "z": 0,
        "embeds": [],
        "dependson": [
          "ef29d1c6-0143-4d06-8fe8-53e777d46d57"
        ]
      },
      "823d8e86-7e73-4e88-895b-150360194d15": {
        "size": {
          "width": 60,
          "height": 60
        },
        "position": {
          "x": 1670,
          "y": 780
        },
        "z": 0,
        "embeds": [],
        "dependson": [
          "cf7034ac-b022-4f89-a4cc-5a5e680d8d25"
        ]
      },
      "9653252e-7c1f-43d4-9698-f155ccc5fc35": {
        "size": {
          "width": 60,
          "height": 60
        },
        "position": {
          "x": 1770,
          "y": 780
        },
        "z": 0,
        "embeds": [],
        "dependson": [
          "3c70865a-d094-49c0-bf08-e89e29e564e7"
        ]
      },
      "6eaa4297-c470-4492-a00b-f4a2c31aaff4": {
        "size": {
          "width": 60,
          "height": 60
        },
        "position": {
          "x": 1870,
          "y": 780
        },
        "z": 0,
        "embeds": [],
        "dependson": [
          "c3f39447-0f9b-4d46-b43f-d616380dceae"
        ]
      },
      "15b5fe14-d2e7-47a0-8ecf-2633a7f13527": {
        "source": {
          "id": "03e64c5a-39d0-47b3-861f-66f6b5a26013"
        },
        "target": {
          "id": "f17e105a-9865-45fe-a849-bbc1e8eebe20"
        },
        "z": 11
      },
      "4fbb2360-2c62-4c8b-9267-977544c20a64": {
        "source": {
          "id": "79359c68-fed5-4936-b6ee-c53f57266149"
        },
        "target": {
          "id": "823d8e86-7e73-4e88-895b-150360194d15"
        },
        "z": 12
      },
      "4d3222b8-7ea7-4408-9b34-00b6db91ad75": {
        "source": {
          "id": "70a02a8f-61c3-4f6c-af7d-a6a80c7e3409"
        },
        "target": {
          "id": "9653252e-7c1f-43d4-9698-f155ccc5fc35"
        },
        "z": 13
      },
      "d8780925-767c-466a-9bd8-4b029b4e0e16": {
        "source": {
          "id": "0a9949ba-72dc-4f8e-8cff-668041870bdb"
        },
        "target": {
          "id": "6eaa4297-c470-4492-a00b-f4a2c31aaff4"
        },
        "z": 14
      },
      "eb692e9e-9f60-4a8f-8247-d4366e0d1a9d": {
        "source": {
          "id": "f17e105a-9865-45fe-a849-bbc1e8eebe20"
        },
        "target": {
          "id": "ef29d1c6-0143-4d06-8fe8-53e777d46d57"
        },
        "z": 11
      },
      "0f364893-d6a2-4620-aeca-320083e508a2": {
        "source": {
          "id": "823d8e86-7e73-4e88-895b-150360194d15"
        },
        "target": {
          "id": "cf7034ac-b022-4f89-a4cc-5a5e680d8d25"
        },
        "z": 12
      },
      "b8f4b72a-1637-479e-96dd-6c628242e8a7": {
        "source": {
          "id": "9653252e-7c1f-43d4-9698-f155ccc5fc35"
        },
        "target": {
          "id": "3c70865a-d094-49c0-bf08-e89e29e564e7"
        },
        "z": 13
      },
      "f22c49a7-4983-42c4-b5ab-882922dd2395": {
        "source": {
          "id": "6eaa4297-c470-4492-a00b-f4a2c31aaff4"
        },
        "target": {
          "id": "c3f39447-0f9b-4d46-b43f-d616380dceae"
        },
        "z": 14
      },
      "ffb53e05-a491-41a0-9109-f3aeb82c081f": {
        "size": {
          "width": 140,
          "height": 140
        },
        "position": {
          "x": 1360,
          "y": 200
        },
        "z": 0,
        "parent": "d4f0ae49-a9ee-49f0-b0fc-51c056e7f916",
        "embeds": [
          "c08958ab-31e7-4202-884c-824756bc0906"
        ],
        "dependson": [
          "c3f39447-0f9b-4d46-b43f-d616380dceae",
          "3c70865a-d094-49c0-bf08-e89e29e564e7",
          "cf7034ac-b022-4f89-a4cc-5a5e680d8d25",
          "ef29d1c6-0143-4d06-8fe8-53e777d46d57"
        ]
      },
      "c08958ab-31e7-4202-884c-824756bc0906": {
        "size": {
          "width": 60,
          "height": 60
        },
        "position": {
          "x": 1550,
          "y": 240
        },
        "z": 0,
        "parent": "ffb53e05-a491-41a0-9109-f3aeb82c081f",
        "embeds": [],
        "references": [
          "683b395b-6621-489c-b856-57b4c9bc2587"
        ],
        "dependson": [
          "ffb53e05-a491-41a0-9109-f3aeb82c081f"
        ]
      },
      "cb055c8c-3fcc-4242-8e2b-64a0dcef124a": {
        "source": {
          "id": "ffb53e05-a491-41a0-9109-f3aeb82c081f"
        },
        "target": {
          "id": "c3f39447-0f9b-4d46-b43f-d616380dceae"
        },
        "z": 11
      },
      "4618b806-ed99-4db5-8c60-5edf6668d0a9": {
        "source": {
          "id": "ffb53e05-a491-41a0-9109-f3aeb82c081f"
        },
        "target": {
          "id": "3c70865a-d094-49c0-bf08-e89e29e564e7"
        },
        "z": 12
      },
      "7f261a36-0137-4b3b-955b-c753dd635f2d": {
        "source": {
          "id": "ffb53e05-a491-41a0-9109-f3aeb82c081f"
        },
        "target": {
          "id": "cf7034ac-b022-4f89-a4cc-5a5e680d8d25"
        },
        "z": 13
      },
      "b6b75113-f4a9-4192-8174-4eeb22ef6748": {
        "source": {
          "id": "ffb53e05-a491-41a0-9109-f3aeb82c081f"
        },
        "target": {
          "id": "ef29d1c6-0143-4d06-8fe8-53e777d46d57"
        },
        "z": 14
      },
      "4b174310-44e5-4e3c-bb01-c8840f3455cb": {
        "source": {
          "id": "ffb53e05-a491-41a0-9109-f3aeb82c081f"
        },
        "target": {
          "id": "c3f39447-0f9b-4d46-b43f-d616380dceae"
        },
        "z": 0
      },
      "2ddff3c2-cb92-47ef-8f59-0ac7dd567b1e": {
        "source": {
          "id": "ffb53e05-a491-41a0-9109-f3aeb82c081f"
        },
        "target": {
          "id": "3c70865a-d094-49c0-bf08-e89e29e564e7"
        },
        "z": 0
      },
      "b35b0a2f-022d-4dbf-b908-75fc0bd7cb19": {
        "source": {
          "id": "ffb53e05-a491-41a0-9109-f3aeb82c081f"
        },
        "target": {
          "id": "cf7034ac-b022-4f89-a4cc-5a5e680d8d25"
        },
        "z": 0
      },
      "b3e5e2da-7439-4d0e-a443-cf951035df6b": {
        "source": {
          "id": "ffb53e05-a491-41a0-9109-f3aeb82c081f"
        },
        "target": {
          "id": "ef29d1c6-0143-4d06-8fe8-53e777d46d57"
        },
        "z": 0
      },
      "2b781a1c-4cd7-40a3-90d0-5cd9ce164b06": {
        "source": {
          "id": "c08958ab-31e7-4202-884c-824756bc0906"
        },
        "target": {
          "id": "ffb53e05-a491-41a0-9109-f3aeb82c081f"
        },
        "z": 19
      },
      "8fc87fb2-ff4a-4330-aa4b-fa6f126b1b02": {
        "size": {
          "width": 60,
          "height": 60
        },
        "position": {
          "x": 1630,
          "y": 1240
        },
        "z": 0,
        "parent": "9097a1fa-2e73-42ba-856c-d93d85822596",
        "embeds": [],
        "dependson": [
          "9097a1fa-2e73-42ba-856c-d93d85822596"
        ],
        "isrelatedto": [
          "683b395b-6621-489c-b856-57b4c9bc2587",
          "03e64c5a-39d0-47b3-861f-66f6b5a26013"
        ]
      },
      "6fe647a9-1d25-4256-b418-126f3d3f3d65": {
        "size": {
          "width": 60,
          "height": 60
        },
        "position": {
          "x": 1800,
          "y": 1240
        },
        "z": 0,
        "parent": "24a65627-c91d-4419-8c24-541f8c075eee",
        "embeds": [],
        "dependson": [
          "24a65627-c91d-4419-8c24-541f8c075eee"
        ],
        "isrelatedto": [
          "79359c68-fed5-4936-b6ee-c53f57266149"
        ]
      },
      "1505280f-b097-4374-b550-036337095fe8": {
        "size": {
          "width": 60,
          "height": 60
        },
        "position": {
          "x": 1970,
          "y": 1240
        },
        "z": 0,
        "parent": "dda58c74-edb9-4ea1-ac14-3452129387d4",
        "embeds": [],
        "dependson": [
          "dda58c74-edb9-4ea1-ac14-3452129387d4"
        ],
        "isrelatedto": [
          "70a02a8f-61c3-4f6c-af7d-a6a80c7e3409"
        ]
      },
      "115a2b81-fa9e-4202-bf8a-4de3da0b2b94": {
        "size": {
          "width": 60,
          "height": 60
        },
        "position": {
          "x": 2150,
          "y": 1240
        },
        "z": 0,
        "parent": "efe9bd72-014c-4a36-8d6e-5220be0ca93f",
        "embeds": [],
        "dependson": [
          "efe9bd72-014c-4a36-8d6e-5220be0ca93f"
        ],
        "isrelatedto": [
          "0a9949ba-72dc-4f8e-8cff-668041870bdb"
        ]
      },
      "8cc845a1-cc7c-4e55-a4f4-a129c5e39819": {
        "source": {
          "id": "8fc87fb2-ff4a-4330-aa4b-fa6f126b1b02"
        },
        "target": {
          "id": "9097a1fa-2e73-42ba-856c-d93d85822596"
        },
        "z": 11
      },
      "45b43a4c-eecc-4ef5-8a9c-cf6f834a9ba2": {
        "source": {
          "id": "6fe647a9-1d25-4256-b418-126f3d3f3d65"
        },
        "target": {
          "id": "24a65627-c91d-4419-8c24-541f8c075eee"
        },
        "z": 12
      },
      "ee9e55d1-0639-49d1-b8f6-286a04341b3f": {
        "source": {
          "id": "1505280f-b097-4374-b550-036337095fe8"
        },
        "target": {
          "id": "dda58c74-edb9-4ea1-ac14-3452129387d4"
        },
        "z": 13
      },
      "e5a53271-540b-430b-aa94-1a2cebf98ef6": {
        "source": {
          "id": "9097a1fa-2e73-42ba-856c-d93d85822596"
        },
        "target": {
          "id": "6bca386a-aa78-499e-bd0d-86a4135391f8"
        },
        "z": 0
      },
      "9cb59e14-2b9f-4c44-aa17-b4fc5e629710": {
        "source": {
          "id": "24a65627-c91d-4419-8c24-541f8c075eee"
        },
        "target": {
          "id": "59c23064-e765-4af2-a5f4-e7268e68e189"
        },
        "z": 0
      },
      "cbda972a-a396-42cb-b204-5d8df4580ac2": {
        "source": {
          "id": "dda58c74-edb9-4ea1-ac14-3452129387d4"
        },
        "target": {
          "id": "525cd2a5-446d-474a-84a9-799b109c1a92"
        },
        "z": 0
      },
      "e28e4412-e37b-4245-b82c-07e99c8b53c4": {
        "source": {
          "id": "efe9bd72-014c-4a36-8d6e-5220be0ca93f"
        },
        "target": {
          "id": "70fb5956-bcfd-4cb6-8e41-0ad55c76ba6d"
        },
        "z": 0
      },
      "1d6ae316-ee6f-4d9d-a2b2-cf435154c806": {
        "source": {
          "id": "9097a1fa-2e73-42ba-856c-d93d85822596"
        },
        "target": {
          "id": "6bca386a-aa78-499e-bd0d-86a4135391f8"
        },
        "z": 19
      },
      "ba86158f-9392-4250-9cbb-650512fea38c": {
        "source": {
          "id": "24a65627-c91d-4419-8c24-541f8c075eee"
        },
        "target": {
          "id": "59c23064-e765-4af2-a5f4-e7268e68e189"
        },
        "z": 20
      },
      "770976f5-c5aa-4ed2-881f-066b83bf1c9a": {
        "source": {
          "id": "dda58c74-edb9-4ea1-ac14-3452129387d4"
        },
        "target": {
          "id": "525cd2a5-446d-474a-84a9-799b109c1a92"
        },
        "z": 21
      },
      "ad1bfa4c-98e6-4b07-9ef8-380ae99019bb": {
        "source": {
          "id": "efe9bd72-014c-4a36-8d6e-5220be0ca93f"
        },
        "target": {
          "id": "70fb5956-bcfd-4cb6-8e41-0ad55c76ba6d"
        },
        "z": 22
      },
      "1607703f-6a05-4531-ace1-2778c5d7ff89": {
        "source": {
          "id": "115a2b81-fa9e-4202-bf8a-4de3da0b2b94"
        },
        "target": {
          "id": "efe9bd72-014c-4a36-8d6e-5220be0ca93f"
        },
        "z": 23
      },
      "109b2000-9195-4c3b-9312-55d6de363781": {
        "source": {
          "id": "c6063497-4151-4b4b-89e7-a01f28a366da",
          "selector": "g:nth-child(1) g:nth-child(5) g:nth-child(2) circle:nth-child(1)     ",
          "port": "AWS::DependencyLink-*"
        },
        "target": {
          "id": "ef29d1c6-0143-4d06-8fe8-53e777d46d57"
        },
        "z": 12
      },
      "6feb6069-0f00-40f2-b8d9-62e200dfdcc8": {
        "source": {
          "id": "c6063497-4151-4b4b-89e7-a01f28a366da",
          "selector": "g:nth-child(1) g:nth-child(5) g:nth-child(2) circle:nth-child(1)     ",
          "port": "AWS::DependencyLink-*"
        },
        "target": {
          "id": "cf7034ac-b022-4f89-a4cc-5a5e680d8d25"
        },
        "z": 12
      },
      "0f6ec380-d95f-45d0-b6bf-a0a1f11a4c45": {
        "source": {
          "id": "c6063497-4151-4b4b-89e7-a01f28a366da",
          "selector": "g:nth-child(1) g:nth-child(5) g:nth-child(2) circle:nth-child(1)     ",
          "port": "AWS::DependencyLink-*"
        },
        "target": {
          "id": "3c70865a-d094-49c0-bf08-e89e29e564e7"
        },
        "z": 12
      },
      "e9a7a5ce-0c41-46ef-a242-96ee0903bd0a": {
        "source": {
          "id": "c6063497-4151-4b4b-89e7-a01f28a366da",
          "selector": "g:nth-child(1) g:nth-child(5) g:nth-child(2) circle:nth-child(1)     ",
          "port": "AWS::DependencyLink-*"
        },
        "target": {
          "id": "c3f39447-0f9b-4d46-b43f-d616380dceae"
        },
        "z": 12
      },
      "fa3dd710-36d0-4fef-8264-dbdd5d348b8a": {
        "source": {
          "id": "ef29d1c6-0143-4d06-8fe8-53e777d46d57",
          "selector": "g:nth-child(1) g:nth-child(5) g:nth-child(1) circle:nth-child(1)     ",
          "port": "AWS::DependencyLink-*"
        },
        "target": {
          "id": "d4f0ae49-a9ee-49f0-b0fc-51c056e7f916"
        },
        "z": 12
      },
      "6504ab16-7be3-4d42-9d11-b8800ee6c70a": {
        "source": {
          "id": "cf7034ac-b022-4f89-a4cc-5a5e680d8d25",
          "selector": "g:nth-child(1) g:nth-child(5) g:nth-child(1) circle:nth-child(1)     ",
          "port": "AWS::DependencyLink-*"
        },
        "target": {
          "id": "d4f0ae49-a9ee-49f0-b0fc-51c056e7f916"
        },
        "z": 12
      },
      "9e41fa85-4c1c-4138-bc44-52344bab4d7c": {
        "source": {
          "id": "3c70865a-d094-49c0-bf08-e89e29e564e7",
          "selector": "g:nth-child(1) g:nth-child(5) g:nth-child(1) circle:nth-child(1)     ",
          "port": "AWS::DependencyLink-*"
        },
        "target": {
          "id": "d4f0ae49-a9ee-49f0-b0fc-51c056e7f916"
        },
        "z": 12
      },
      "0fc36c5b-d1e9-4408-b3c5-768a232a17f9": {
        "source": {
          "id": "c3f39447-0f9b-4d46-b43f-d616380dceae",
          "selector": "g:nth-child(1) g:nth-child(5) g:nth-child(1) circle:nth-child(1)     ",
          "port": "AWS::DependencyLink-*"
        },
        "target": {
          "id": "d4f0ae49-a9ee-49f0-b0fc-51c056e7f916"
        },
        "z": 12
      },
      "9bbac1be-792c-465b-8089-0744741bb292": {
        "source": {
          "id": "c6063497-4151-4b4b-89e7-a01f28a366da",
          "selector": "g:nth-child(1) g:nth-child(5) g:nth-child(2) circle:nth-child(1)     ",
          "port": "AWS::DependencyLink-*"
        },
        "target": {
          "id": "c3f39447-0f9b-4d46-b43f-d616380dceae"
        },
        "z": 12
      },
      "fc657ca6-f911-453d-81c5-4c041e6f370d": {
        "source": {
          "id": "ffb53e05-a491-41a0-9109-f3aeb82c081f",
          "selector": "g:nth-child(1) g:nth-child(5) g:nth-child(2) circle:nth-child(1)     ",
          "port": "AWS::DependencyLink-*"
        },
        "target": {
          "id": "c3f39447-0f9b-4d46-b43f-d616380dceae"
        },
        "z": 12
      },
      "7a1085b1-9d90-46e7-83e6-565fb3d1bb38": {
        "source": {
          "id": "ffb53e05-a491-41a0-9109-f3aeb82c081f",
          "selector": "g:nth-child(1) g:nth-child(5) g:nth-child(2) circle:nth-child(1)     ",
          "port": "AWS::DependencyLink-*"
        },
        "target": {
          "id": "3c70865a-d094-49c0-bf08-e89e29e564e7"
        },
        "z": 12
      },
      "8474ed48-47fc-4853-a053-ffbc90cedc7e": {
        "source": {
          "id": "ffb53e05-a491-41a0-9109-f3aeb82c081f",
          "selector": "g:nth-child(1) g:nth-child(5) g:nth-child(2) circle:nth-child(1)     ",
          "port": "AWS::DependencyLink-*"
        },
        "target": {
          "id": "cf7034ac-b022-4f89-a4cc-5a5e680d8d25"
        },
        "z": 12
      },
      "db62a183-24a8-46e3-983d-1fbf1a7116d6": {
        "source": {
          "id": "ffb53e05-a491-41a0-9109-f3aeb82c081f",
          "selector": "g:nth-child(1) g:nth-child(5) g:nth-child(2) circle:nth-child(1)     ",
          "port": "AWS::DependencyLink-*"
        },
        "target": {
          "id": "ef29d1c6-0143-4d06-8fe8-53e777d46d57"
        },
        "z": 12
      },
      "f551e188-0c68-4740-822f-81e8d8b5c7a7": {
        "size": {
          "width": 140,
          "height": 140
        },
        "position": {
          "x": 1850,
          "y": 1820
        },
        "z": 0,
        "parent": "d4f0ae49-a9ee-49f0-b0fc-51c056e7f916",
        "embeds": [],
        "dependson": [
          "9b09b1c2-5d40-481c-b2d6-71c10bca28fb",
          "53dfe393-281a-4799-8aeb-8a674d0ca43b",
          "1b838a6d-e7f4-4cf5-8e2f-91a096c4843e",
          "f880313e-6e06-47d9-864d-eda3b5e73c01"
        ]
      },
      "ba1e1853-6081-4740-9f49-fd427ebdd29b": {
        "source": {
          "id": "64633c79-1989-44a6-adaa-e3b5aa33f9fa"
        },
        "target": {
          "id": "f551e188-0c68-4740-822f-81e8d8b5c7a7"
        },
        "z": 11
      },
      "9b09b1c2-5d40-481c-b2d6-71c10bca28fb": {
        "size": {
          "width": 140,
          "height": 140
        },
        "position": {
          "x": 1620,
          "y": 2060
        },
        "z": 0,
        "parent": "d4f0ae49-a9ee-49f0-b0fc-51c056e7f916",
        "embeds": [],
        "dependson": [
          "d4f0ae49-a9ee-49f0-b0fc-51c056e7f916"
        ]
      },
      "53dfe393-281a-4799-8aeb-8a674d0ca43b": {
        "size": {
          "width": 140,
          "height": 140
        },
        "position": {
          "x": 1790,
          "y": 2060
        },
        "z": 0,
        "parent": "d4f0ae49-a9ee-49f0-b0fc-51c056e7f916",
        "embeds": [],
        "dependson": [
          "d4f0ae49-a9ee-49f0-b0fc-51c056e7f916"
        ]
      },
      "1b838a6d-e7f4-4cf5-8e2f-91a096c4843e": {
        "size": {
          "width": 140,
          "height": 140
        },
        "position": {
          "x": 1960,
          "y": 2060
        },
        "z": 0,
        "parent": "d4f0ae49-a9ee-49f0-b0fc-51c056e7f916",
        "embeds": [],
        "dependson": [
          "d4f0ae49-a9ee-49f0-b0fc-51c056e7f916"
        ]
      },
      "f880313e-6e06-47d9-864d-eda3b5e73c01": {
        "size": {
          "width": 140,
          "height": 140
        },
        "position": {
          "x": 2130,
          "y": 2060
        },
        "z": 0,
        "parent": "d4f0ae49-a9ee-49f0-b0fc-51c056e7f916",
        "embeds": [],
        "dependson": [
          "d4f0ae49-a9ee-49f0-b0fc-51c056e7f916"
        ]
      },
      "1dfeb1ec-48c9-4d4b-b731-1ef54604d6bd": {
        "source": {
          "id": "f551e188-0c68-4740-822f-81e8d8b5c7a7"
        },
        "target": {
          "id": "9b09b1c2-5d40-481c-b2d6-71c10bca28fb"
        },
        "z": 11
      },
      "c0b84f7a-a410-422b-88c2-99719e0030c1": {
        "source": {
          "id": "f551e188-0c68-4740-822f-81e8d8b5c7a7"
        },
        "target": {
          "id": "53dfe393-281a-4799-8aeb-8a674d0ca43b"
        },
        "z": 12
      },
      "38f32afe-2f77-4673-a37a-e85b058cabda": {
        "source": {
          "id": "f551e188-0c68-4740-822f-81e8d8b5c7a7"
        },
        "target": {
          "id": "1b838a6d-e7f4-4cf5-8e2f-91a096c4843e"
        },
        "z": 13
      },
      "7baecd5f-352a-4877-99d6-93f0ed6f1d5a": {
        "source": {
          "id": "f551e188-0c68-4740-822f-81e8d8b5c7a7"
        },
        "target": {
          "id": "f880313e-6e06-47d9-864d-eda3b5e73c01"
        },
        "z": 14
      },
      "aa66462a-bbfe-4e5d-a79c-c423a21ba54c": {
        "source": {
          "id": "f551e188-0c68-4740-822f-81e8d8b5c7a7"
        },
        "target": {
          "id": "9b09b1c2-5d40-481c-b2d6-71c10bca28fb"
        },
        "z": 0
      },
      "910f280f-8f4a-4b93-b942-5b3d50970bbe": {
        "source": {
          "id": "f551e188-0c68-4740-822f-81e8d8b5c7a7"
        },
        "target": {
          "id": "53dfe393-281a-4799-8aeb-8a674d0ca43b"
        },
        "z": 0
      },
      "9f013b28-5d86-464c-8242-af14598000ba": {
        "source": {
          "id": "f551e188-0c68-4740-822f-81e8d8b5c7a7"
        },
        "target": {
          "id": "1b838a6d-e7f4-4cf5-8e2f-91a096c4843e"
        },
        "z": 0
      },
      "fa3af0b1-e8f7-4e8c-b13a-052c58774eb7": {
        "source": {
          "id": "f551e188-0c68-4740-822f-81e8d8b5c7a7"
        },
        "target": {
          "id": "f880313e-6e06-47d9-864d-eda3b5e73c01"
        },
        "z": 0
      },
      "c0bc71fa-a55a-4d1c-a5b8-8a313cf0cb0e": {
        "size": {
          "width": 60,
          "height": 60
        },
        "position": {
          "x": 2260,
          "y": 690
        },
        "z": 0,
        "parent": "d4f0ae49-a9ee-49f0-b0fc-51c056e7f916",
        "embeds": [],
        "isassociatedwith": [
          "9097a1fa-2e73-42ba-856c-d93d85822596",
          "24a65627-c91d-4419-8c24-541f8c075eee",
          "dda58c74-edb9-4ea1-ac14-3452129387d4",
          "efe9bd72-014c-4a36-8d6e-5220be0ca93f",
          "f551e188-0c68-4740-822f-81e8d8b5c7a7",
          "ffb53e05-a491-41a0-9109-f3aeb82c081f"
        ],
        "dependson": [
          "d4f0ae49-a9ee-49f0-b0fc-51c056e7f916",
          "9097a1fa-2e73-42ba-856c-d93d85822596",
          "24a65627-c91d-4419-8c24-541f8c075eee",
          "dda58c74-edb9-4ea1-ac14-3452129387d4",
          "efe9bd72-014c-4a36-8d6e-5220be0ca93f",
          "f551e188-0c68-4740-822f-81e8d8b5c7a7",
          "ffb53e05-a491-41a0-9109-f3aeb82c081f"
        ]
      },
      "4102ad42-a46c-430d-807c-14050210990e": {
        "source": {
          "id": "2640e76a-9b21-4e4f-a142-e5a4f0bb7e84"
        },
        "target": {
          "id": "9b09b1c2-5d40-481c-b2d6-71c10bca28fb"
        },
        "z": 11
      },
      "2b08d9ae-0386-4ef4-b5c3-5e14f5111ca1": {
        "source": {
          "id": "2640e76a-9b21-4e4f-a142-e5a4f0bb7e84"
        },
        "target": {
          "id": "53dfe393-281a-4799-8aeb-8a674d0ca43b"
        },
        "z": 12
      },
      "06a5a5fa-fbb8-4126-939d-f70a3e095d54": {
        "source": {
          "id": "2640e76a-9b21-4e4f-a142-e5a4f0bb7e84"
        },
        "target": {
          "id": "1b838a6d-e7f4-4cf5-8e2f-91a096c4843e"
        },
        "z": 13
      },
      "eba26dd5-6c7c-4c0f-ab1b-20d36750665e": {
        "source": {
          "id": "2640e76a-9b21-4e4f-a142-e5a4f0bb7e84"
        },
        "target": {
          "id": "f880313e-6e06-47d9-864d-eda3b5e73c01"
        },
        "z": 14
      },
      "271ee259-e659-48e3-830b-b61fe515f717": {
        "source": {
          "id": "2640e76a-9b21-4e4f-a142-e5a4f0bb7e84"
        },
        "target": {
          "id": "9b09b1c2-5d40-481c-b2d6-71c10bca28fb"
        },
        "z": 0
      },
      "8e82f111-ee20-4cbe-ba76-6eb32c6152ee": {
        "source": {
          "id": "2640e76a-9b21-4e4f-a142-e5a4f0bb7e84"
        },
        "target": {
          "id": "53dfe393-281a-4799-8aeb-8a674d0ca43b"
        },
        "z": 0
      },
      "1c537790-d70e-4df6-b110-0f2f86a94b37": {
        "source": {
          "id": "2640e76a-9b21-4e4f-a142-e5a4f0bb7e84"
        },
        "target": {
          "id": "1b838a6d-e7f4-4cf5-8e2f-91a096c4843e"
        },
        "z": 0
      },
      "46d90788-7728-44a9-9ab2-4bd49aedc1c9": {
        "source": {
          "id": "2640e76a-9b21-4e4f-a142-e5a4f0bb7e84"
        },
        "target": {
          "id": "f880313e-6e06-47d9-864d-eda3b5e73c01"
        },
        "z": 0
      },
      "12330a98-f1f3-412c-9a3e-df702ba8e2ce": {
        "source": {
          "id": "c6063497-4151-4b4b-89e7-a01f28a366da"
        },
        "target": {
          "id": "3c70865a-d094-49c0-bf08-e89e29e564e7"
        },
        "z": 0
      }
    }
  },
  "Resources": {
    "igw": {
      "Type": "AWS::EC2::InternetGateway",
      "Metadata": {
        "AWS::CloudFormation::Designer": {
          "id": "683b395b-6621-489c-b856-57b4c9bc2587"
        }
      },
      "DependsOn": [
        "vpc"
      ],
      "Properties": {
        "Tags": [
          {
            "Key": "Name",
            "Value": {
              "Fn::Join": [
                "",
                [
                  {
                    "Ref": "VpcName"
                  },
                  "-igw"
                ]
              ]
            }
          }
        ]
      }
    },
    "vpc": {
      "Type": "AWS::EC2::VPC",
      "Properties": {
        "CidrBlock": {
          "Fn::Join": [
            "",
            [
              {
                "Ref": "VpcCidr"
              },
              ".0.0/16"
            ]
          ]
        },
        "EnableDnsSupport": true,
        "EnableDnsHostnames": true,
        "InstanceTenancy": "default",
        "Tags": [
          {
            "Key": "Name",
            "Value": {
              "Ref": "VpcName"
            }
          }
        ]
      },
      "Metadata": {
        "AWS::CloudFormation::Designer": {
          "id": "d4f0ae49-a9ee-49f0-b0fc-51c056e7f916"
        }
      }
    },
    "EC2VPCGFAA5": {
      "Type": "AWS::EC2::VPCGatewayAttachment",
      "Properties": {
        "InternetGatewayId": {
          "Ref": "igw"
        },
        "VpcId": {
          "Ref": "vpc"
        }
      },
      "Metadata": {
        "AWS::CloudFormation::Designer": {
          "id": "5c9c4abb-e7ad-4cb7-8103-27cb6b4fc8ec"
        }
      }
    },
    "private1": {
      "Type": "AWS::EC2::Subnet",
      "Properties": {
        "AvailabilityZone": {
          "Fn::Select": [
            0,
            {
              "Fn::GetAZs": ""
            }
          ]
        },
        "CidrBlock": {
          "Fn::Join": [
            "",
            [
              {
                "Ref": "VpcCidr"
              },
              ".0.0/19"
            ]
          ]
        },
        "MapPublicIpOnLaunch": false,
        "VpcId": {
          "Ref": "vpc"
        },
        "Tags": [
          {
            "Key": "Name",
            "Value": "private1"
          }
        ]
      },
      "Metadata": {
        "AWS::CloudFormation::Designer": {
          "id": "6bca386a-aa78-499e-bd0d-86a4135391f8"
        }
      },
      "DependsOn": [
        "vpc"
      ]
    },
    "private2": {
      "Type": "AWS::EC2::Subnet",
      "Properties": {
        "AvailabilityZone": {
          "Fn::Select": [
            1,
            {
              "Fn::GetAZs": ""
            }
          ]
        },
        "CidrBlock": {
          "Fn::Join": [
            "",
            [
              {
                "Ref": "VpcCidr"
              },
              ".64.0/19"
            ]
          ]
        },
        "MapPublicIpOnLaunch": false,
        "VpcId": {
          "Ref": "vpc"
        },
        "Tags": [
          {
            "Key": "Name",
            "Value": "private2"
          }
        ]
      },
      "Metadata": {
        "AWS::CloudFormation::Designer": {
          "id": "59c23064-e765-4af2-a5f4-e7268e68e189"
        }
      },
      "DependsOn": [
        "vpc"
      ]
    },
    "private4": {
      "Type": "AWS::EC2::Subnet",
      "Properties": {
        "AvailabilityZone": {
          "Fn::Select": [
            3,
            {
              "Fn::GetAZs": ""
            }
          ]
        },
        "CidrBlock": {
          "Fn::Join": [
            "",
            [
              {
                "Ref": "VpcCidr"
              },
              ".192.0/19"
            ]
          ]
        },
        "MapPublicIpOnLaunch": false,
        "VpcId": {
          "Ref": "vpc"
        },
        "Tags": [
          {
            "Key": "Name",
            "Value": "private4"
          }
        ]
      },
      "Metadata": {
        "AWS::CloudFormation::Designer": {
          "id": "70fb5956-bcfd-4cb6-8e41-0ad55c76ba6d"
        }
      },
      "DependsOn": [
        "vpc"
      ]
    },
    "public1": {
      "Type": "AWS::EC2::Subnet",
      "Properties": {
        "AvailabilityZone": {
          "Fn::Select": [
            0,
            {
              "Fn::GetAZs": ""
            }
          ]
        },
        "CidrBlock": {
          "Fn::Join": [
            "",
            [
              {
                "Ref": "VpcCidr"
              },
              ".32.0/20"
            ]
          ]
        },
        "MapPublicIpOnLaunch": false,
        "VpcId": {
          "Ref": "vpc"
        },
        "Tags": [
          {
            "Key": "Name",
            "Value": "public1"
          }
        ]
      },
      "Metadata": {
        "AWS::CloudFormation::Designer": {
          "id": "ef29d1c6-0143-4d06-8fe8-53e777d46d57"
        }
      },
      "DependsOn": [
        "vpc"
      ]
    },
    "public2": {
      "Type": "AWS::EC2::Subnet",
      "Properties": {
        "AvailabilityZone": {
          "Fn::Select": [
            1,
            {
              "Fn::GetAZs": ""
            }
          ]
        },
        "CidrBlock": {
          "Fn::Join": [
            "",
            [
              {
                "Ref": "VpcCidr"
              },
              ".96.0/20"
            ]
          ]
        },
        "MapPublicIpOnLaunch": false,
        "VpcId": {
          "Ref": "vpc"
        },
        "Tags": [
          {
            "Key": "Name",
            "Value": "public2"
          }
        ]
      },
      "Metadata": {
        "AWS::CloudFormation::Designer": {
          "id": "cf7034ac-b022-4f89-a4cc-5a5e680d8d25"
        }
      },
      "DependsOn": [
        "vpc"
      ]
    },
    "public4": {
      "Type": "AWS::EC2::Subnet",
      "Properties": {
        "AvailabilityZone": {
          "Fn::Select": [
            3,
            {
              "Fn::GetAZs": ""
            }
          ]
        },
        "CidrBlock": {
          "Fn::Join": [
            "",
            [
              {
                "Ref": "VpcCidr"
              },
              ".224.0/20"
            ]
          ]
        },
        "MapPublicIpOnLaunch": false,
        "VpcId": {
          "Ref": "vpc"
        },
        "Tags": [
          {
            "Key": "Name",
            "Value": "public4"
          }
        ]
      },
      "Metadata": {
        "AWS::CloudFormation::Designer": {
          "id": "c3f39447-0f9b-4d46-b43f-d616380dceae"
        }
      },
      "DependsOn": [
        "vpc"
      ]
    },
    "privateNacl": {
      "Type": "AWS::EC2::NetworkAcl",
      "Properties": {
        "VpcId": {
          "Ref": "vpc"
        },
        "Tags": [
          {
            "Key": "Name",
            "Value": "privateNacl"
          }
        ]
      },
      "Metadata": {
        "AWS::CloudFormation::Designer": {
          "id": "2640e76a-9b21-4e4f-a142-e5a4f0bb7e84"
        }
      },
      "DependsOn": [
        "private1",
        "private3",
        "private4",
        "private2",
        "spare1",
        "spare2",
        "spare3",
        "spare4"
      ]
    },
    "publicNacl": {
      "Type": "AWS::EC2::NetworkAcl",
      "Properties": {
        "VpcId": {
          "Ref": "vpc"
        },
        "Tags": [
          {
            "Key": "Name",
            "Value": "publicNacl"
          }
        ]
      },
      "Metadata": {
        "AWS::CloudFormation::Designer": {
          "id": "c6063497-4151-4b4b-89e7-a01f28a366da"
        }
      },
      "DependsOn": [
        "public1",
        "public2",
        "public3",
        "public4"
      ]
    },
    "EC2SNAA1UMLT": {
      "Type": "AWS::EC2::SubnetNetworkAclAssociation",
      "Properties": {
        "NetworkAclId": {
          "Ref": "privateNacl"
        },
        "SubnetId": {
          "Ref": "private1"
        }
      },
      "Metadata": {
        "AWS::CloudFormation::Designer": {
          "id": "84ad3576-3522-4c35-b9d3-0c938d92faa9"
        }
      }
    },
    "EC2SNAA7FNJ": {
      "Type": "AWS::EC2::SubnetNetworkAclAssociation",
      "Properties": {
        "NetworkAclId": {
          "Ref": "privateNacl"
        },
        "SubnetId": {
          "Ref": "private3"
        }
      },
      "Metadata": {
        "AWS::CloudFormation::Designer": {
          "id": "40e68712-6be8-4686-b41d-59b28e0478c7"
        }
      }
    },
    "EC2SNAA1WFR6": {
      "Type": "AWS::EC2::SubnetNetworkAclAssociation",
      "Properties": {
        "NetworkAclId": {
          "Ref": "privateNacl"
        },
        "SubnetId": {
          "Ref": "private4"
        }
      },
      "Metadata": {
        "AWS::CloudFormation::Designer": {
          "id": "13c8013a-50c4-4772-a7c4-95af714bf0bf"
        }
      }
    },
    "EC2SNAA1LFZC": {
      "Type": "AWS::EC2::SubnetNetworkAclAssociation",
      "Properties": {
        "NetworkAclId": {
          "Ref": "privateNacl"
        },
        "SubnetId": {
          "Ref": "private2"
        }
      },
      "Metadata": {
        "AWS::CloudFormation::Designer": {
          "id": "4fe71b74-b738-4295-bfe1-3ab172892aa8"
        }
      }
    },
    "allowAllEgressPrivate": {
      "Type": "AWS::EC2::NetworkAclEntry",
      "Properties": {
        "NetworkAclId": {
          "Ref": "privateNacl"
        },
        "CidrBlock": "0.0.0.0/0",
        "Egress": true,
        "Protocol": -1,
        "RuleAction": "allow",
        "RuleNumber": 100
      },
      "Metadata": {
        "AWS::CloudFormation::Designer": {
          "id": "e6ae5ab4-8633-41fb-b9f7-3b3333b4a413"
        }
      },
      "DependsOn": [
        "privateNacl"
      ]
    },
    "allowAllEgressPublic": {
      "Type": "AWS::EC2::NetworkAclEntry",
      "Properties": {
        "NetworkAclId": {
          "Ref": "publicNacl"
        },
        "CidrBlock": "0.0.0.0/0",
        "Egress": true,
        "Protocol": -1,
        "RuleAction": "allow",
        "RuleNumber": 100
      },
      "Metadata": {
        "AWS::CloudFormation::Designer": {
          "id": "20033a93-797b-4083-99e3-9fd93ded5002"
        }
      },
      "DependsOn": [
        "publicNacl"
      ]
    },
    "allowAllIngressPublic": {
      "Type": "AWS::EC2::NetworkAclEntry",
      "Properties": {
        "NetworkAclId": {
          "Ref": "publicNacl"
        },
        "CidrBlock": "0.0.0.0/0",
        "Egress": false,
        "Protocol": -1,
        "RuleAction": "allow",
        "RuleNumber": 100
      },
      "Metadata": {
        "AWS::CloudFormation::Designer": {
          "id": "2787e543-7da6-4d90-a97f-dbf9963f2d87"
        }
      },
      "DependsOn": [
        "publicNacl"
      ]
    },
    "EC2SNAA2QKL4": {
      "Type": "AWS::EC2::SubnetNetworkAclAssociation",
      "Properties": {
        "NetworkAclId": {
          "Ref": "publicNacl"
        },
        "SubnetId": {
          "Ref": "public1"
        }
      },
      "Metadata": {
        "AWS::CloudFormation::Designer": {
          "id": "7e5d7c60-539e-449a-bc4d-85ac9db5387e"
        }
      }
    },
    "EC2SNAA2LBIH": {
      "Type": "AWS::EC2::SubnetNetworkAclAssociation",
      "Properties": {
        "NetworkAclId": {
          "Ref": "publicNacl"
        },
        "SubnetId": {
          "Ref": "public2"
        }
      },
      "Metadata": {
        "AWS::CloudFormation::Designer": {
          "id": "8e50a12d-d13d-40ce-a995-b5bfd1e2f72e"
        }
      }
    },
    "EC2SNAAB2AH": {
      "Type": "AWS::EC2::SubnetNetworkAclAssociation",
      "Properties": {
        "NetworkAclId": {
          "Ref": "publicNacl"
        },
        "SubnetId": {
          "Ref": "public3"
        }
      },
      "Metadata": {
        "AWS::CloudFormation::Designer": {
          "id": "972c9d3b-2d40-4bb6-b743-3cf8186abc5d"
        }
      }
    },
    "EC2SNAAH8BE": {
      "Type": "AWS::EC2::SubnetNetworkAclAssociation",
      "Properties": {
        "NetworkAclId": {
          "Ref": "publicNacl"
        },
        "SubnetId": {
          "Ref": "public4"
        }
      },
      "Metadata": {
        "AWS::CloudFormation::Designer": {
          "id": "1187836e-4fb9-4a47-bd14-9e9d8363750c"
        }
      }
    },
    "private1RouteTable": {
      "Type": "AWS::EC2::RouteTable",
      "Properties": {
        "VpcId": {
          "Ref": "vpc"
        },
        "Tags": [
          {
            "Key": "Name",
            "Value": "private1-rt"
          }
        ]
      },
      "Metadata": {
        "AWS::CloudFormation::Designer": {
          "id": "9097a1fa-2e73-42ba-856c-d93d85822596"
        }
      },
      "DependsOn": [
        "private1"
      ]
    },
    "private2RouteTable": {
      "Type": "AWS::EC2::RouteTable",
      "Properties": {
        "VpcId": {
          "Ref": "vpc"
        },
        "Tags": [
          {
            "Key": "Name",
            "Value": "private2-rt"
          }
        ]
      },
      "Metadata": {
        "AWS::CloudFormation::Designer": {
          "id": "24a65627-c91d-4419-8c24-541f8c075eee"
        }
      },
      "DependsOn": [
        "private2"
      ]
    },
    "private3RouteTable": {
      "Type": "AWS::EC2::RouteTable",
      "Properties": {
        "VpcId": {
          "Ref": "vpc"
        },
        "Tags": [
          {
            "Key": "Name",
            "Value": "private3-rt"
          }
        ]
      },
      "Metadata": {
        "AWS::CloudFormation::Designer": {
          "id": "dda58c74-edb9-4ea1-ac14-3452129387d4"
        }
      },
      "DependsOn": [
        "private3"
      ]
    },
    "private4RouteTable": {
      "Type": "AWS::EC2::RouteTable",
      "Properties": {
        "VpcId": {
          "Ref": "vpc"
        },
        "Tags": [
          {
            "Key": "Name",
            "Value": "private4-rt"
          }
        ]
      },
      "Metadata": {
        "AWS::CloudFormation::Designer": {
          "id": "efe9bd72-014c-4a36-8d6e-5220be0ca93f"
        }
      },
      "DependsOn": [
        "private4"
      ]
    },
    "natEip1": {
      "Type": "AWS::EC2::EIP",
      "Properties": {},
      "Metadata": {
        "AWS::CloudFormation::Designer": {
          "id": "f17e105a-9865-45fe-a849-bbc1e8eebe20"
        }
      },
      "DependsOn": [
        "public1"
      ]
    },
    "natEip2": {
      "Type": "AWS::EC2::EIP",
      "Properties": {},
      "Metadata": {
        "AWS::CloudFormation::Designer": {
          "id": "823d8e86-7e73-4e88-895b-150360194d15"
        }
      },
      "DependsOn": [
        "public2"
      ]
    },
    "natEip3": {
      "Type": "AWS::EC2::EIP",
      "Properties": {},
      "Metadata": {
        "AWS::CloudFormation::Designer": {
          "id": "9653252e-7c1f-43d4-9698-f155ccc5fc35"
        }
      },
      "DependsOn": [
        "public3"
      ]
    },
    "natEip4": {
      "Type": "AWS::EC2::EIP",
      "Properties": {},
      "Metadata": {
        "AWS::CloudFormation::Designer": {
          "id": "6eaa4297-c470-4492-a00b-f4a2c31aaff4"
        }
      },
      "DependsOn": [
        "public4"
      ]
    },
    "nat1": {
      "Type": "AWS::EC2::NatGateway",
      "Properties": {
        "AllocationId": {
          "Fn::GetAtt": [
            "natEip1",
            "AllocationId"
          ]
        },
        "SubnetId": {
          "Ref": "public1"
        }
      },
      "Metadata": {
        "AWS::CloudFormation::Designer": {
          "id": "03e64c5a-39d0-47b3-861f-66f6b5a26013"
        }
      },
      "DependsOn": [
        "natEip1"
      ]
    },
    "nat2": {
      "Type": "AWS::EC2::NatGateway",
      "Properties": {
        "AllocationId": {
          "Fn::GetAtt": [
            "natEip2",
            "AllocationId"
          ]
        },
        "SubnetId": {
          "Ref": "public2"
        }
      },
      "Metadata": {
        "AWS::CloudFormation::Designer": {
          "id": "79359c68-fed5-4936-b6ee-c53f57266149"
        }
      },
      "DependsOn": [
        "natEip2"
      ]
    },
    "nat3": {
      "Type": "AWS::EC2::NatGateway",
      "Properties": {
        "AllocationId": {
          "Fn::GetAtt": [
            "natEip3",
            "AllocationId"
          ]
        },
        "SubnetId": {
          "Ref": "private3"
        }
      },
      "Metadata": {
        "AWS::CloudFormation::Designer": {
          "id": "70a02a8f-61c3-4f6c-af7d-a6a80c7e3409"
        }
      },
      "DependsOn": [
        "natEip3"
      ]
    },
    "nat4": {
      "Type": "AWS::EC2::NatGateway",
      "Properties": {
        "AllocationId": {
          "Fn::GetAtt": [
            "natEip4",
            "AllocationId"
          ]
        },
        "SubnetId": {
          "Ref": "public4"
        }
      },
      "Metadata": {
        "AWS::CloudFormation::Designer": {
          "id": "0a9949ba-72dc-4f8e-8cff-668041870bdb"
        }
      },
      "DependsOn": [
        "natEip4"
      ]
    },
    "publicRouteTable": {
      "Type": "AWS::EC2::RouteTable",
      "Properties": {
        "VpcId": {
          "Ref": "vpc"
        },
        "Tags": [
          {
            "Key": "Name",
            "Value": "public-rt"
          }
        ]
      },
      "Metadata": {
        "AWS::CloudFormation::Designer": {
          "id": "ffb53e05-a491-41a0-9109-f3aeb82c081f"
        }
      },
      "DependsOn": [
        "public4",
        "public3",
        "public2",
        "public1"
      ]
    },
    "defaultRoutePublic": {
      "Type": "AWS::EC2::Route",
      "Properties": {
        "DestinationCidrBlock": "0.0.0.0/0",
        "GatewayId": {
          "Ref": "igw"
        },
        "RouteTableId": {
          "Ref": "publicRouteTable"
        }
      },
      "Metadata": {
        "AWS::CloudFormation::Designer": {
          "id": "c08958ab-31e7-4202-884c-824756bc0906"
        }
      },
      "DependsOn": [
        "publicRouteTable"
      ]
    },
    "EC2SRTA1XAPD": {
      "Type": "AWS::EC2::SubnetRouteTableAssociation",
      "Properties": {
        "RouteTableId": {
          "Ref": "publicRouteTable"
        },
        "SubnetId": {
          "Ref": "public4"
        }
      },
      "Metadata": {
        "AWS::CloudFormation::Designer": {
          "id": "4b174310-44e5-4e3c-bb01-c8840f3455cb"
        }
      }
    },
    "EC2SRTA4THCH": {
      "Type": "AWS::EC2::SubnetRouteTableAssociation",
      "Properties": {
        "RouteTableId": {
          "Ref": "publicRouteTable"
        },
        "SubnetId": {
          "Ref": "public3"
        }
      },
      "Metadata": {
        "AWS::CloudFormation::Designer": {
          "id": "2ddff3c2-cb92-47ef-8f59-0ac7dd567b1e"
        }
      }
    },
    "EC2SRTA1GR8O": {
      "Type": "AWS::EC2::SubnetRouteTableAssociation",
      "Properties": {
        "RouteTableId": {
          "Ref": "publicRouteTable"
        },
        "SubnetId": {
          "Ref": "public2"
        }
      },
      "Metadata": {
        "AWS::CloudFormation::Designer": {
          "id": "b35b0a2f-022d-4dbf-b908-75fc0bd7cb19"
        }
      }
    },
    "EC2SRTAD1VN": {
      "Type": "AWS::EC2::SubnetRouteTableAssociation",
      "Properties": {
        "RouteTableId": {
          "Ref": "publicRouteTable"
        },
        "SubnetId": {
          "Ref": "public1"
        }
      },
      "Metadata": {
        "AWS::CloudFormation::Designer": {
          "id": "b3e5e2da-7439-4d0e-a443-cf951035df6b"
        }
      }
    },
    "private1DefaultRoute": {
      "Type": "AWS::EC2::Route",
      "Properties": {
        "DestinationCidrBlock": "0.0.0.0/0",
        "NatGatewayId": {
          "Ref": "nat1"
        },
        "RouteTableId": {
          "Ref": "private1RouteTable"
        }
      },
      "Metadata": {
        "AWS::CloudFormation::Designer": {
          "id": "8fc87fb2-ff4a-4330-aa4b-fa6f126b1b02"
        }
      },
      "DependsOn": [
        "private1RouteTable"
      ]
    },
    "private2DefaultRoute": {
      "Type": "AWS::EC2::Route",
      "Properties": {
        "DestinationCidrBlock": "0.0.0.0/0",
        "NatGatewayId": {
          "Ref": "nat2"
        },
        "RouteTableId": {
          "Ref": "private2RouteTable"
        }
      },
      "Metadata": {
        "AWS::CloudFormation::Designer": {
          "id": "6fe647a9-1d25-4256-b418-126f3d3f3d65"
        }
      },
      "DependsOn": [
        "private2RouteTable"
      ]
    },
    "private3DefaultRoute": {
      "Type": "AWS::EC2::Route",
      "Properties": {
        "DestinationCidrBlock": "0.0.0.0/0",
        "NatGatewayId": {
          "Ref": "nat3"
        },
        "RouteTableId": {
          "Ref": "private3RouteTable"
        }
      },
      "Metadata": {
        "AWS::CloudFormation::Designer": {
          "id": "1505280f-b097-4374-b550-036337095fe8"
        }
      },
      "DependsOn": [
        "private3RouteTable"
      ]
    },
    "private4DefaultRoute": {
      "Type": "AWS::EC2::Route",
      "Properties": {
        "DestinationCidrBlock": "0.0.0.0/0",
        "NatGatewayId": {
          "Ref": "nat4"
        },
        "RouteTableId": {
          "Ref": "private4RouteTable"
        }
      },
      "Metadata": {
        "AWS::CloudFormation::Designer": {
          "id": "115a2b81-fa9e-4202-bf8a-4de3da0b2b94"
        }
      },
      "DependsOn": [
        "private4RouteTable"
      ]
    },
    "EC2SRTA2VQKL": {
      "Type": "AWS::EC2::SubnetRouteTableAssociation",
      "Properties": {
        "RouteTableId": {
          "Ref": "private1RouteTable"
        },
        "SubnetId": {
          "Ref": "private1"
        }
      },
      "Metadata": {
        "AWS::CloudFormation::Designer": {
          "id": "e5a53271-540b-430b-aa94-1a2cebf98ef6"
        }
      }
    },
    "EC2SRTACSRY": {
      "Type": "AWS::EC2::SubnetRouteTableAssociation",
      "Properties": {
        "RouteTableId": {
          "Ref": "private2RouteTable"
        },
        "SubnetId": {
          "Ref": "private2"
        }
      },
      "Metadata": {
        "AWS::CloudFormation::Designer": {
          "id": "9cb59e14-2b9f-4c44-aa17-b4fc5e629710"
        }
      }
    },
    "EC2SRTAAZ4G": {
      "Type": "AWS::EC2::SubnetRouteTableAssociation",
      "Properties": {
        "RouteTableId": {
          "Ref": "private3RouteTable"
        },
        "SubnetId": {
          "Ref": "private3"
        }
      },
      "Metadata": {
        "AWS::CloudFormation::Designer": {
          "id": "cbda972a-a396-42cb-b204-5d8df4580ac2"
        }
      }
    },
    "EC2SRTA17JUI": {
      "Type": "AWS::EC2::SubnetRouteTableAssociation",
      "Properties": {
        "RouteTableId": {
          "Ref": "private4RouteTable"
        },
        "SubnetId": {
          "Ref": "private4"
        }
      },
      "Metadata": {
        "AWS::CloudFormation::Designer": {
          "id": "e28e4412-e37b-4245-b82c-07e99c8b53c4"
        }
      }
    },
    "spareSubnets": {
      "Type": "AWS::EC2::RouteTable",
      "Properties": {
        "VpcId": {
          "Ref": "vpc"
        },
        "Tags": [
          {
            "Key": "Name",
            "Value": "spare-subnets-rt"
          }
        ]
      },
      "Metadata": {
        "AWS::CloudFormation::Designer": {
          "id": "f551e188-0c68-4740-822f-81e8d8b5c7a7"
        }
      },
      "DependsOn": [
        "spare1",
        "spare2",
        "spare3",
        "spare4"
      ]
    },
    "spare1": {
      "Type": "AWS::EC2::Subnet",
      "Properties": {
        "AvailabilityZone": {
          "Fn::Select": [
            0,
            {
              "Fn::GetAZs": ""
            }
          ]
        },
        "CidrBlock": {
          "Fn::Join": [
            "",
            [
              {
                "Ref": "VpcCidr"
              },
              ".48.0/20"
            ]
          ]
        },
        "MapPublicIpOnLaunch": false,
        "VpcId": {
          "Ref": "vpc"
        },
        "Tags": [
          {
            "Key": "Name",
            "Value": "spare1"
          }
        ]
      },
      "Metadata": {
        "AWS::CloudFormation::Designer": {
          "id": "9b09b1c2-5d40-481c-b2d6-71c10bca28fb"
        }
      },
      "DependsOn": [
        "vpc"
      ]
    },
    "spare2": {
      "Type": "AWS::EC2::Subnet",
      "Properties": {
        "AvailabilityZone": {
          "Fn::Select": [
            1,
            {
              "Fn::GetAZs": ""
            }
          ]
        },
        "CidrBlock": {
          "Fn::Join": [
            "",
            [
              {
                "Ref": "VpcCidr"
              },
              ".112.0/20"
            ]
          ]
        },
        "MapPublicIpOnLaunch": false,
        "VpcId": {
          "Ref": "vpc"
        },
        "Tags": [
          {
            "Key": "Name",
            "Value": "spare2"
          }
        ]
      },
      "Metadata": {
        "AWS::CloudFormation::Designer": {
          "id": "53dfe393-281a-4799-8aeb-8a674d0ca43b"
        }
      },
      "DependsOn": [
        "vpc"
      ]
    },
    "spare4": {
      "Type": "AWS::EC2::Subnet",
      "Properties": {
        "AvailabilityZone": {
          "Fn::Select": [
            3,
            {
              "Fn::GetAZs": ""
            }
          ]
        },
        "CidrBlock": {
          "Fn::Join": [
            "",
            [
              {
                "Ref": "VpcCidr"
              },
              ".240.0/20"
            ]
          ]
        },
        "MapPublicIpOnLaunch": false,
        "VpcId": {
          "Ref": "vpc"
        },
        "Tags": [
          {
            "Key": "Name",
            "Value": "spare4"
          }
        ]
      },
      "Metadata": {
        "AWS::CloudFormation::Designer": {
          "id": "f880313e-6e06-47d9-864d-eda3b5e73c01"
        }
      },
      "DependsOn": [
        "vpc"
      ]
    },
    "EC2SRTA3H0XC": {
      "Type": "AWS::EC2::SubnetRouteTableAssociation",
      "Properties": {
        "RouteTableId": {
          "Ref": "spareSubnets"
        },
        "SubnetId": {
          "Ref": "spare1"
        }
      },
      "Metadata": {
        "AWS::CloudFormation::Designer": {
          "id": "aa66462a-bbfe-4e5d-a79c-c423a21ba54c"
        }
      }
    },
    "EC2SRTA3GT01": {
      "Type": "AWS::EC2::SubnetRouteTableAssociation",
      "Properties": {
        "RouteTableId": {
          "Ref": "spareSubnets"
        },
        "SubnetId": {
          "Ref": "spare2"
        }
      },
      "Metadata": {
        "AWS::CloudFormation::Designer": {
          "id": "910f280f-8f4a-4b93-b942-5b3d50970bbe"
        }
      }
    },
    "EC2SRTA2W2CK": {
      "Type": "AWS::EC2::SubnetRouteTableAssociation",
      "Properties": {
        "RouteTableId": {
          "Ref": "spareSubnets"
        },
        "SubnetId": {
          "Ref": "spare3"
        }
      },
      "Metadata": {
        "AWS::CloudFormation::Designer": {
          "id": "9f013b28-5d86-464c-8242-af14598000ba"
        }
      }
    },
    "EC2SRTA2K79N": {
      "Type": "AWS::EC2::SubnetRouteTableAssociation",
      "Properties": {
        "RouteTableId": {
          "Ref": "spareSubnets"
        },
        "SubnetId": {
          "Ref": "spare4"
        }
      },
      "Metadata": {
        "AWS::CloudFormation::Designer": {
          "id": "fa3af0b1-e8f7-4e8c-b13a-052c58774eb7"
        }
      }
    },
    "spare3": {
      "Type": "AWS::EC2::Subnet",
      "Properties": {
        "AvailabilityZone": {
          "Fn::Select": [
            2,
            {
              "Fn::GetAZs": ""
            }
          ]
        },
        "CidrBlock": {
          "Fn::Join": [
            "",
            [
              {
                "Ref": "VpcCidr"
              },
              ".176.0/20"
            ]
          ]
        },
        "MapPublicIpOnLaunch": false,
        "VpcId": {
          "Ref": "vpc"
        },
        "Tags": [
          {
            "Key": "Name",
            "Value": "spare3"
          }
        ]
      },
      "Metadata": {
        "AWS::CloudFormation::Designer": {
          "id": "1b838a6d-e7f4-4cf5-8e2f-91a096c4843e"
        }
      },
      "DependsOn": [
        "vpc"
      ]
    },
    "s3Endpoint": {
      "Type": "AWS::EC2::VPCEndpoint",
      "Properties": {
        "ServiceName": {
          "Fn::Join": [
            "",
            [
              "com.amazonaws.",
              {
                "Ref": "AWS::Region"
              },
              ".s3"
            ]
          ]
        },
        "RouteTableIds": [
          {
            "Ref": "private1RouteTable"
          },
          {
            "Ref": "private2RouteTable"
          },
          {
            "Ref": "private3RouteTable"
          },
          {
            "Ref": "private4RouteTable"
          },
          {
            "Ref": "spareSubnets"
          },
          {
            "Ref": "publicRouteTable"
          }
        ],
        "VpcId": {
          "Ref": "vpc"
        }
      },
      "Metadata": {
        "AWS::CloudFormation::Designer": {
          "id": "c0bc71fa-a55a-4d1c-a5b8-8a313cf0cb0e"
        }
      },
      "DependsOn": [
        "vpc",
        "private1RouteTable",
        "private2RouteTable",
        "private3RouteTable",
        "private4RouteTable",
        "spareSubnets",
        "publicRouteTable"
      ]
    },
    "EC2SNAA298SB": {
      "Type": "AWS::EC2::SubnetNetworkAclAssociation",
      "Properties": {
        "NetworkAclId": {
          "Ref": "privateNacl"
        },
        "SubnetId": {
          "Ref": "spare1"
        }
      },
      "Metadata": {
        "AWS::CloudFormation::Designer": {
          "id": "271ee259-e659-48e3-830b-b61fe515f717"
        }
      }
    },
    "EC2SNAAMEY1": {
      "Type": "AWS::EC2::SubnetNetworkAclAssociation",
      "Properties": {
        "NetworkAclId": {
          "Ref": "privateNacl"
        },
        "SubnetId": {
          "Ref": "spare2"
        }
      },
      "Metadata": {
        "AWS::CloudFormation::Designer": {
          "id": "8e82f111-ee20-4cbe-ba76-6eb32c6152ee"
        }
      }
    },
    "EC2SNAA3Z6DJ": {
      "Type": "AWS::EC2::SubnetNetworkAclAssociation",
      "Properties": {
        "NetworkAclId": {
          "Ref": "privateNacl"
        },
        "SubnetId": {
          "Ref": "spare3"
        }
      },
      "Metadata": {
        "AWS::CloudFormation::Designer": {
          "id": "1c537790-d70e-4df6-b110-0f2f86a94b37"
        }
      }
    },
    "EC2SNAA4DSQW": {
      "Type": "AWS::EC2::SubnetNetworkAclAssociation",
      "Properties": {
        "NetworkAclId": {
          "Ref": "privateNacl"
        },
        "SubnetId": {
          "Ref": "spare4"
        }
      },
      "Metadata": {
        "AWS::CloudFormation::Designer": {
          "id": "46d90788-7728-44a9-9ab2-4bd49aedc1c9"
        }
      }
    },
    "EC2SNAA45XLL": {
      "Type": "AWS::EC2::SubnetNetworkAclAssociation",
      "Properties": {
        "NetworkAclId": {
          "Ref": "publicNacl"
        },
        "SubnetId": {
          "Ref": "public3"
        }
      },
      "Metadata": {
        "AWS::CloudFormation::Designer": {
          "id": "12330a98-f1f3-412c-9a3e-df702ba8e2ce"
        }
      }
    },
    "public3": {
      "Type": "AWS::EC2::Subnet",
      "Properties": {
        "AvailabilityZone": {
          "Fn::Select": [
            2,
            {
              "Fn::GetAZs": ""
            }
          ]
        },
        "CidrBlock": {
          "Fn::Join": [
            "",
            [
              {
                "Ref": "VpcCidr"
              },
              ".160.0/20"
            ]
          ]
        },
        "MapPublicIpOnLaunch": false,
        "VpcId": {
          "Ref": "vpc"
        },
        "Tags": [
          {
            "Key": "Name",
            "Value": "public3"
          }
        ]
      },
      "Metadata": {
        "AWS::CloudFormation::Designer": {
          "id": "3c70865a-d094-49c0-bf08-e89e29e564e7"
        }
      },
      "DependsOn": [
        "vpc"
      ]
    },
    "private3": {
      "Type": "AWS::EC2::Subnet",
      "Properties": {
        "AvailabilityZone": {
          "Fn::Select": [
            2,
            {
              "Fn::GetAZs": ""
            }
          ]
        },
        "CidrBlock": {
          "Fn::Join": [
            "",
            [
              {
                "Ref": "VpcCidr"
              },
              ".128.0/19"
            ]
          ]
        },
        "MapPublicIpOnLaunch": false,
        "VpcId": {
          "Ref": "vpc"
        },
        "Tags": [
          {
            "Key": "Name",
            "Value": "private3"
          }
        ]
      },
      "Metadata": {
        "AWS::CloudFormation::Designer": {
          "id": "525cd2a5-446d-474a-84a9-799b109c1a92"
        }
      },
      "DependsOn": [
        "vpc"
      ]
    },
    "allowAllIngressPrivate": {
      "Type": "AWS::EC2::NetworkAclEntry",
      "Properties": {
        "NetworkAclId": {
          "Ref": "privateNacl"
        },
        "CidrBlock": "0.0.0.0/0",
        "Protocol": -1,
        "Egress": false,
        "RuleAction": "allow",
        "RuleNumber": 100
      },
      "Metadata": {
        "AWS::CloudFormation::Designer": {
          "id": "6dcc901b-2e45-4ee7-927d-3b7188debec1"
        }
      },
      "DependsOn": [
        "privateNacl"
      ]
    }
  },
  "Parameters": {
    "VpcName": {
      "Type": "String"
    },
    "VpcCidr": {
      "Type": "String",
      "Default": "10.1",
      "AllowedPattern": "^(10)[.]([01]?[0-9]?[0-9]|2[0-4][0-9]|25[0-5])$",
      "Description": "First two octets of VPC CIDR block"
    }
  },
  "Outputs": {
    "VpcCidrBlock": {
      "Description": "CIDR block of VPC created",
      "Value": {
        "Fn::GetAtt": [
          "vpc",
          "CidrBlock"
        ]
      }
    }
  }
}